n1186691905
7486
n1186692589 n1186694387 n1186693694 n1186697485 n1186691517 n1186692146 n1186697391 n1186695549 n1186691717 n1186698219 n1186696952 n1186697411 n1186697781 n1186698326 n1186695693 n1186694171 n1186694160 n1186696653 n1186692142 n1186694242 n1186694269 n1186692446 n1186698630 n1186696243 n1186698134 n1186694068 n1186698115 n1186693150 n1186697641 n1186692686 n1186692515 n1186697689 n1186696234 n1186697071 n1186694660 n1186694583 n1186697320 n1186697624 n1186693306 n1186697651 n1186695724 n1186695673 n1186693521 n1186691712 n1186695812 n1186693545 n1186698467 n1186695365 n1186697711 n1186697057 n1186695851 n1186693102 n1186697807 n1186698792 n1186698579 n1186692491 n1186691579 n1186696715 n1186696131 n1186697638 n1186696199 n1186691308 n1186696227 n1186692472 n1186698121 n1186691376 n1186692302 n1186698602 n1186693761 n1186697691 n1186698074 n1186691905 n1186698074 n1186697691 n1186693761 n1186698602 n1186692302 n1186691376 n1186698121 n1186692472 n1186696227 n1186691308 n1186696199 n1186697638 n1186696131 n1186696715 n1186691579 n1186692491 n1186698579 n1186698792 n1186697807 n1186693102 n1186695851 n1186697057 n1186697711 n1186695365 n1186698467 n1186693545 n1186695812 n1186691712 n1186693521 n1186695673 n1186695724 n1186697651 n1186693306 n1186697624 n1186697320 n1186694583 n1186694660 n1186697071 n1186696234 n1186697689 n1186692515 n1186692686 n1186697641 n1186693150 n1186698115 n1186694068 n1186698134 n1186696243 n1186698630 n1186692446 n1186694269 n1186694242 n1186692142 n1186696653 n1186694160 n1186694171 n1186695693 n1186698326 n1186697781 n1186697411 n1186696952 n1186698219 n1186691717 n1186695549 n1186697391 n1186692146 n1186691517 n1186697485 n1186693694 n1186694387 n1186692589 
n1766674568
29753
n4576947768 n3697310725 n246102514 n246104448 n246104480 n246104447 n1767178916 n1767178948 n1767178761 n2629942744 n1767178901 n1767178832 n1767178965 n1767178816 n1767178956 n1767179047 n1767178983 n1767178875 n1767178884 n1767179053 n1767178985 n1767178925 n1767179051 n1767179010 n1767178760 n1767178801 n1767178795 n5247592535 n1767178791 n1767178793 n1767178952 n1767178855 n1767178879 n1767178789 n4840661825 n246102483 n4224678289 n246104418 n3818882562 n5314057653 n5314057652 n1433206463 n1433206457 n1433206448 n5225225506 n5225225503 n246280401 n3818879355 n246280400 n246280399 n3818879353 n4518637403 n246280397 n246280396 n1766738257 n246280394 n246280393 n5921710315 n246280392 n226429644 n4577028307 n33575756 n5532181346 n246425472 n2812348403 n6412768375 n226429616 n581056932 n5313508153 n226429610 n226429600 n3959042966 n248406122 n226429590 n5921707796 n226429582 n3959042965 n226429574 n1282774848 n1282774851 n5235428344 n1282774850 n1282774847 n1282774863 n248407106 n3959042959 n3959042958 n226429539 n486090562 n226429519 n581056576 n6549597246 n3698180126 n5225396372 n226429511 n5225396365 n4017557031 n226429496 n503824044 n226429485 n267184157 n226429475 n226429468 n4590740121 n226429458 n4590740100 n6549597250 n226429450 n245812535 n226429434 n6549597255 n4407960961 n226429425 n4407960959 n226429414 n5225396408 n5225396728 n226429406 n581056292 n1962230107 n5248541599 n581056289 n5272693763 n5248541597 n5272693760 n275736161 n5248666572 n588566262 n3998133827 n588566261 n588566258 n1540333206 n1540333205 n588566244 n1540333203 n588566242 n588566238 n588566237 n5225491459 n226363639 n245811740 n583078134 n588566233 n588566227 n581064388 n4740491713 n588566230 n588566226 n588566225 n583078102 n583078100 n588566224 n588566216 n588566219 n588566218 n6666745949 n3738640881 n6666745946 n4331975444 n6666745962 n6666745950 n4331975443 n588566213 n588566214 n226363484 n588566210 n4883913057 n226363468 n583077865 n583077854 n4330743775 n583077857 n3738695513 n5277853956 n5225613804 n5277853959 n5225613849 n583076420 n583076416 n3738691373 n226363431 n5997195698 n5997195701 n5997195697 n583076362 n3730613458 n583076360 n583076356 n245812012 n3730613457 n298566354 n298566357 n298566353 n298565748 n298566396 n298565747 n298565746 n298565745 n298565744 n298568359 n298692572 n298568360 n298568361 n298692567 n298568362 n298692564 n298568363 n298692558 n298568364 n298692555 n298692551 n298568365 n298568366 n298568367 n605206780 n605206772 n298568368 n605206771 n298568369 n605206769 n298568370 n298691699 n298568371 n605206762 n605206761 n298568373 n298568374 n298681136 n298568375 n298681144 n298568376 n298568377 n298691026 n298691025 n298691024 n298691022 n298691021 n298691020 n298691018 n605206718 n605206717 n1846284945 n1957250766 n1846284939 n1766674609 n369599335 n1986310810 n369783917 n369599334 n369599424 n282251449 n282251909 n282251447 n282251867 n282251908 n282251865 n369596600 n4557358165 n4557358164 n369596602 n4557358163 n369596603 n4557358162 n715887097 n369596604 n412322405 n4557358152 n4557358151 n4560915237 n4557358150 n369596612 n4560915224 n1766674595 n412322351 n369605781 n369605782 n1959912019 n1959912010 n1959911998 n1959912008 n1959913002 n1959912022 n604126512 n604126496 n604126495 n369605785 n604126484 n604126483 n6830994249 n604126443 n6830957648 n604126436 n3730433697 n282251246 n1952680994 n282251247 n604124694 n604124198 n604124681 n604124189 n1766674585 n4515299221 n1766674582 n1975855225 n4209976729 n1766674579 n1766674577 n4209976728 n1766674576 n1766674568 n1766674576 n4209976728 n1766674577 n1766674579 n4209976729 n1975855225 n1766674582 n4515299221 n1766674585 n604124189 n604124681 n604124198 n604124694 n282251247 n1952680994 n282251246 n3730433697 n604126436 n6830957648 n604126443 n6830994249 n604126483 n604126484 n369605785 n604126495 n604126496 n604126512 n1959912022 n1959913002 n1959912008 n1959911998 n1959912010 n1959912019 n369605782 n369605781 n412322351 n1766674595 n4560915224 n369596612 n4557358150 n4560915237 n4557358151 n4557358152 n412322405 n369596604 n715887097 n4557358162 n369596603 n4557358163 n369596602 n4557358164 n4557358165 n369596600 n282251865 n282251908 n282251867 n282251447 n282251909 n282251449 n369599424 n369599334 n369783917 n1986310810 n369599335 n1766674609 n1846284939 n1957250766 n1846284945 n605206717 n605206718 n298691018 n298691020 n298691021 n298691022 n298691024 n298691025 n298691026 n298568377 n298568376 n298681144 n298568375 n298681136 n298568374 n298568373 n605206761 n605206762 n298568371 n298691699 n298568370 n605206769 n298568369 n605206771 n298568368 n605206772 n605206780 n298568367 n298568366 n298568365 n298692551 n298692555 n298568364 n298692558 n298568363 n298692564 n298568362 n298692567 n298568361 n298568360 n298692572 n298568359 n298565744 n298565745 n298565746 n298565747 n298566396 n298565748 n298566353 n298566357 n298566354 n3730613457 n245812012 n583076350 n298890695 n298692888 n5997195700 n5997195702 n5997195699 n4867659985 n5225613801 n5277853955 n5225613802 n5225613809 n5225613810 n5225613811 n5225613812 n5225613813 n5225613815 n5225613821 n5225613827 n5225613826 n5225613824 n5277853956 n3738695513 n583077857 n4330743775 n583077854 n583077865 n226363468 n4883913057 n588566210 n226363484 n588566214 n588566213 n4331975443 n6666745950 n6666745962 n4331975444 n6666745946 n3738640881 n6666745949 n588566218 n588566219 n588566216 n588566224 n583078100 n583078102 n588566225 n588566226 n588566230 n4740491713 n581064388 n588566227 n588566233 n583078134 n245811740 n226363639 n5225491459 n588566237 n588566240 n588566245 n588566248 n588566252 n1540333204 n588566256 n588566258 n588566261 n3998133827 n588566262 n5248666572 n275736161 n5272693760 n5248541597 n5272693763 n581056289 n5248541599 n1962230107 n581056292 n226429406 n5225396728 n5225396408 n226429414 n4407960959 n226429425 n4407960961 n6549597255 n226429434 n245812535 n226429450 n6549597250 n4590740100 n226429458 n4590740121 n226429468 n226429475 n267184157 n226429485 n503824044 n226429496 n4017557031 n5225396365 n226429511 n5225396372 n3698180126 n6549597246 n581056576 n226429519 n486090562 n226429539 n3959042958 n3959042959 n248407106 n1282774863 n1282774847 n1282774850 n5235428344 n1282774851 n1282774848 n226429574 n3959042965 n226429582 n5921707796 n226429590 n248406122 n3959042966 n226429600 n226429610 n5313508153 n581056932 n226429616 n6412768375 n2812348403 n2812348404 n33575767 n246425467 n2812364911 n33575765 n3697327363 n2812364923 n33575762 n6145873944 n3697327393 n5247781281 n246425477 n3697327402 n6147593000 n246425479 n6119440410 n1281712557 n4494301477 n3697273509 n3697273508 n4344150247 n5247781895 n5247781902 n5247781904 n5247781906 n5247781908 n5247781910 n5247781912 n5247781893 n5247781892 n246280407 n246279641 n246279640 n246279639 n246279638 n5247782126 n246279637 n246279636 n246279633 n246279631 n246279630 n246102516 n246102515 n246425418 n246102488 n246104435 n6910364489 n246104439 n6910354293 n6910366359 n246104443 n6910346224 n246102514 n3697310725 n4576947768 
n1395057489
1195
n213590603 n213590582 n611541637 n611541640 n3921207356 n213590587 n213590584 n213573278 n1395057484 n1395057463 n1395057500 n1395057485 n1395057459 n1395057501 n1395057461 n1395057489 n1395057461 n1395057501 n1395057459 n1395057485 n1395057500 n1395057463 n1395057484 n213573278 n213573312 n3922293886 n213590603 
n1805172664
339
n1805172687 n1805172651 n1805172665 n1805172664 n1805172665 n1805172651 n1805172687 
IMPOSSIBLE!
n376084343
6821
n5231730554 n5231730553 n5231730552 n5231730514 n375930576 n5231730513 n375930440 n375930431 n5231730512 n375930460 n5231730511 n375930449 n5231730510 n375930477 n5231730509 n375930468 n5231730508 n5231730507 n5231730506 n5231730505 n375930504 n5231730504 n375930493 n5231730503 n5231730502 n375930662 n5231730501 n375930670 n375930649 n375930655 n5231730500 n375930690 n5231730499 n5231730498 n375930694 n376074336 n5231730463 n376074350 n376074356 n5231730464 n5231730465 n5231730466 n5231730467 n376074364 n376074330 n5231730468 n5231730469 n376074324 n376074318 n376074304 n5231730470 n5231730471 n5231730472 n376074299 n5231730473 n5231730474 n5231730475 n376074289 n376074282 n376074276 n5231730476 n376074268 n5231730477 n5231730478 n5231730479 n376074260 n5231730480 n5231730481 n376074249 n5231730568 n376637721 n5231730569 n5231730570 n376637753 n5231730571 n1151469595 n6169531626 n6169531625 n6169531624 n6169531623 n6169531621 n6169531622 n6169531627 n6169531628 n6169531629 n6169531630 n5231730590 n376086733 n5231730591 n376086738 n5231730592 n5231730593 n376048269 n376082873 n5231730729 n376082893 n5231730728 n376082888 n376082883 n5231730727 n376082878 n5231730726 n376084336 n5231730725 n376084332 n5231730724 n5231730723 n376084344 n5231730722 n5231730721 n5231730620 n5231730619 n376084343 n5231730619 n5231730620 n5231730721 n5231730722 n376084344 n5231730723 n5231730724 n376084332 n5231730725 n376084336 n5231730726 n376082878 n5231730727 n376082883 n376082888 n5231730728 n376082893 n5231730729 n376082873 n376048269 n5231730593 n5231730592 n376086738 n5231730591 n376086733 n5231730590 n6169531630 n6169531629 n6169531628 n6169531627 n6169531622 n6169531621 n6169531623 n6169531624 n6169531625 n6169531626 n1151469595 n5231730571 n376637753 n5231730570 n5231730569 n376637721 n5231730568 n376074249 n5231730481 n5231730480 n376074260 n5231730479 n5231730478 n5231730477 n376074268 n5231730476 n376074276 n376074282 n376074289 n5231730475 n5231730474 n5231730473 n376074299 n5231730472 n5231730471 n5231730470 n376074304 n376074318 n376074324 n5231730469 n5231730468 n376074330 n376074364 n5231730467 n5231730466 n5231730465 n5231730464 n376074356 n376074350 n5231730463 n376074336 n375930694 n5231730498 n5231730499 n375930690 n5231730500 n375930655 n375930649 n375930670 n5231730501 n375930662 n5231730502 n5231730503 n375930493 n5231730504 n375930504 n5231730505 n5231730506 n5231730507 n5231730508 n375930468 n5231730509 n375930477 n5231730510 n375930449 n5231730511 n375930460 n5231730512 n375930431 n375930440 n5231730513 n375930576 n5231730514 n5231730552 n5231730553 n5231730554 
IMPOSSIBLE!
n373626453
20118
n4962159124 n373601529 n373605559 n373598028 n373598036 n3516253288 n3516253395 n373585317 n3516253410 n3516253421 n373613787 n373593140 n373593143 n373600275 n373623277 n1091998719 n1091996684 n373598944 n373608777 n1091997757 n1091999044 n373608759 n373598903 n373585340 n373615870 n3723835888 n3723835883 n3723835875 n2452126445 n373589313 n1092101530 n1092101461 n373589319 n373589317 n373628901 n1092101563 n373587095 n373587098 n1093200888 n4962159123 n1092101482 n373587101 n373606356 n4861478339 n1092149038 n373591595 n1092149027 n4861478331 n603470631 n373591833 n373591836 n373633944 n3517588041 n1092148935 n603470651 n373604135 n373607572 n373586601 n373586600 n1092311595 n1092314265 n373586598 n373601157 n1092313266 n373623881 n1092311721 n2460415445 n373623878 n1092314381 n373585598 n2460415444 n1092313584 n373585596 n373637145 n2460415421 n1092313971 n373637098 n1092312412 n373637095 n1092310686 n373609885 n373583405 n373583403 n1094916557 n2460415233 n1094911265 n1094907325 n373586695 n373586703 n1094895653 n373619402 n1094931459 n373619398 n1094938005 n1094934723 n373581350 n373581348 n373581346 n373588208 n373584928 n373588697 n373588698 n1094935687 n373621140 n1094932586 n373621143 n373592979 n373606889 n373583551 n373589737 n1094931701 n373620309 n1094893431 n6298151253 n373620313 n373620316 n1094943129 n373620320 n373598790 n373598788 n1094908371 n373615901 n373584293 n373603548 n1094939145 n373603550 n373603544 n1094898062 n373603546 n1095307998 n3521964071 n373603541 n373603543 n373603539 n373603537 n373603535 n373603533 n373603531 n373603530 n1095301699 n373592347 n373626285 n1095315656 n373591303 n373609221 n373609223 n373635499 n1095301965 n373635510 n1095306285 n373635503 n373625304 n373626457 n1095311683 n373626455 n1095302455 n1095314944 n373626453 n1095314944 n1095302455 n373626455 n1095311683 n373626457 n373625304 n373635503 n1095306285 n373635510 n1095301965 n373635499 n373609223 n373609221 n373591303 n1095315656 n373626285 n373592347 n1095301699 n373603530 n373603531 n373603533 n373603535 n373603537 n373603539 n373603543 n373603541 n3521964071 n1095307998 n373603546 n1094898062 n373603544 n373603550 n1094939145 n373603548 n373584293 n373615901 n1094908371 n373598788 n373598790 n373620320 n1094943129 n373620316 n373620313 n6298151253 n1094893431 n373620309 n1094931701 n373589737 n373583551 n373606889 n373592979 n373621143 n1094932586 n373621140 n1094935687 n373588698 n373588697 n373584928 n373588208 n373581346 n373581348 n373581350 n373600404 n373600396 n1094897054 n373600399 n1094893248 n373600325 n1094910144 n373586703 n373586695 n1094907325 n1094911265 n2460415233 n2460415235 n2460415302 n3517409596 n2460415334 n2458252396 n3517409610 n3517409614 n3517409616 n3517409626 n2460415382 n2460415385 n2460415390 n2460415396 n2460415399 n2460415400 n2460415401 n2460415403 n2460415405 n2460415407 n2460415409 n2460415411 n2460415415 n2460415419 n2460415422 n2460415423 n2460415425 n2460415426 n2460415427 n2460415428 n2460415429 n2460415431 n2460415433 n2460415434 n2460415435 n2460415436 n2460415437 n2460415438 n2460415439 n2460415440 n2460415441 n2460415442 n2460415443 n2458252453 n2458252454 n2458252455 n2458252456 n2458252457 n2458252463 n2458252466 n2458252473 n2458252474 n2458252477 n2458252479 n2458252481 n2458252482 n2458252480 n2458252478 n2458252476 n2458252470 n2458252469 n2458252468 n2458252467 n2458252465 n2458252464 n2458252461 n2458252458 n2458235302 n2458235299 n2458235297 n2458235295 n2458235293 n2458235294 n2458235296 n2458235298 n2458235300 n2458235303 n2458235304 n2458235305 n603470648 n603470650 n603470651 n603470644 n373611041 n1092148977 n373591836 n373591833 n1092149021 n1092149023 n4745800883 n373583964 n373595696 n373587101 n1092101482 n4962159123 n1093200888 n373587098 n373587095 n1092101563 n373628901 n373589317 n373589319 n1092101461 n1092101530 n373589313 n2452126445 n3723835875 n3723835883 n3723835888 n373615870 n373585340 n373598903 n373608759 n1091999044 n1091997757 n373608777 n373598944 n1091996684 n1091998719 n373623277 n373600275 n373593143 n373593140 n373613787 n3516253421 n3516253410 n373585317 n3516253395 n3516253288 n373598036 n373598028 n373605559 n373601529 n4962159124 
IMPOSSIBLE!
n372151996
6718
n1295954695 n1295937973 n1295913997 n1295933984 n1296051899 n1295988937 n1295973273 n1295956958 n1295917968 n1295908827 n1296007385 n1295995092 n1295919205 n1295904004 n1295929782 n1295964579 n1295922344 n1296051017 n1295911576 n1296046423 n1296054068 n1295933239 n1296054215 n1295985346 n372151866 n372151871 n372151927 n372151931 n372151937 n372151944 n372151904 n372151909 n372151915 n372151920 n372151976 n372151972 n372151989 n372151983 n372151955 n372151949 n372151967 n372151961 n372152029 n372152024 n372152044 n372152036 n2148163966 n372152004 n372151996 n372152004 n2148163966 n372152036 n372152044 n372152024 n372152029 n372151961 n372151967 n372151949 n372151955 n372151983 n372151989 n372151972 n372151976 n372151920 n372151915 n372151909 n372151904 n372151944 n372151937 n372151931 n372151927 n372151871 n372151866 n1295985346 n1296054215 n1295933239 n1296054068 n1296046423 n1295911576 n1296051017 n1295922344 n1295964579 n1295929782 n1295904004 n1295919205 n1295995092 n1296007385 n1295908827 n1295917968 n1295956958 n1295973273 n1295988937 n1296051899 n1295933984 n1295913997 n1295937973 n1295954695 
