n561034398
4474
n560652394 n550400021 n560652399 n560652398 n929791594 n560652389 n560652387 n560652388 n560652407 n926021451 n560652444 n588164541 n588164515 n561001878 n460020816 n623678654 n560997658 n560997659 n927180672 n927180622 n560997660 n561034412 n623678647 n623678645 n561034398 n561034397 n561034390 n926021632 n927180988 n561034391 n561034411 n560997659 n560997658 n560997657 n561001873 n561001876 n561001878 n588164515 n588164541 n560652444 n926021451 n560652407 n560652388 n560652387 n560652389 n929791594 n560652398 n560652399 n550400021 n560652394 
n415520212
1056
n415517565 n415520177 n417734690 n415517566 n417734855 n415520210 n415520211 n415520212 n415520211 n415520210 n417734855 n415517566 n417734690 n415520177 n415517565 
n550400015
2491
n561001727 n561001733 n561001735 n560997650 n560997649 n560997648 n560995530 n560995528 n560995277 n560995266 n560652400 n560652956 n560652941 n560652944 n560652962 n419641724 n550400018 n419641723 n550400015 n419641723 n550400018 n419641724 n560652962 n560652944 n560652941 n560652956 n560652400 n560995266 n560995527 n560995529 n560997647 n560997648 n560997649 n560997650 n561001735 n561001733 n561001727 
n927638673
628
n391697271 n391697272 n391697273 n391697274 n391697267 n391697266 n391697265 n391697264 n391697204 n391697203 n391697068 n391697069 n927638673 n391697069 n391697068 n391697203 n391697204 n391697264 n391697265 n391697266 n391697267 n391697274 n391697273 n391697272 n391697271 
n262231838
7455
n619041833 n619041839 n262233219 n619041840 n619041847 n262233218 n262233217 n262232372 n262232371 n619042143 n262232370 n619042144 n1349118323 n262232369 n262232367 n619042148 n262232175 n619042147 n619042153 n619042159 n563629863 n262232174 n262232173 n262232172 n262232171 n262231847 n560541552 n560541595 n619042163 n619042164 n619042165 n619042167 n262231842 n262231841 n560541593 n262231840 n262231839 n262231838 n262231839 n262231840 n560541593 n262231841 n262231842 n619042167 n619042165 n619042164 n619042163 n560541595 n560541552 n262231847 n262232171 n262232172 n262232173 n262232174 n563629863 n619042159 n619042153 n619042147 n262232175 n619042148 n262232367 n262232369 n1349118323 n619042144 n262232370 n619042143 n262232371 n262232372 n262233217 n262233218 n619041847 n619041840 n262233219 n619041839 n619041833 
n391544384
972
n390617477 n390619203 n390619206 n391697819 n927636536 n391697745 n390619208 n391544384 n390619208 n391697745 n927636536 n391697819 n390619206 n390619203 n390617477 
n390097895
5452
n560997663 n560652471 n560652472 n560997656 n561001873 n560997657 n560997658 n560997659 n260700036 n561034414 n561034407 n561034404 n926020806 n260700039 n926020198 n260700040 n561034402 n561034399 n260700043 n272789843 n272789844 n929790706 n394325128 n540378237 n272789846 n272789848 n394324881 n929790990 n272789849 n427596343 n427596346 n540378161 n540378217 n427592509 n390094825 n927638955 n272789855 n927638640 n272789856 n370709900 n370709875 n374316534 n927637244 n540378555 n390097893 n390097894 n390097895 n390097894 n390097893 n540378555 n927637244 n374316534 n540378569 n540378544 n394324495 n394324516 n387998352 n387998353 n427593502 n540378139 n394324818 n387998354 n387998355 n272789875 n929791778 n929791488 n387998356 n387998357 n293047702 n387998358 n292084897 n540440544 n561034403 n459942597 n387998311 n460020816 n623678654 n561001873 n560997656 n560652472 n560652457 n560652458 n926020393 n926020700 n560997664 n560997663 
n370964226
1613
n370964329 n389009217 n527983200 n424685445 n388898878 n527972076 n370964230 n370964229 n370964228 n370964227 n370964226 n370964227 n370964228 n370964229 n370964230 n527972076 n388898878 n424685445 n527983200 n389009217 n370964329 
n416084435
4049
n262077095 n370960978 n539996774 n539996772 n370961054 n539996771 n539996769 n370709323 n370709322 n370709321 n370709320 n370709319 n370709318 n549671076 n540442013 n779118961 n779119873 n931417799 n539996732 n391978898 n539996971 n391977238 n370708476 n370708477 n370708478 n623678770 n292692125 n292692224 n623678774 n391975260 n391975589 n573701491 n573703956 n573703964 n416084258 n573703994 n416084424 n416084425 n416084426 n416084427 n416084429 n416084430 n416084433 n416084435 n416084433 n416084430 n416084429 n416084427 n416084426 n416084425 n416084424 n573703994 n416084258 n573703964 n573704044 n416083118 n415837563 n391990696 n387999246 n623678772 n370708478 n370708477 n370708476 n391977238 n539996971 n391978898 n539996732 n931417799 n779119873 n779118961 n540442013 n549671076 n370709318 n370709319 n370709320 n370709321 n370709322 n370709323 n539996769 n539996771 n370961054 n539996772 n539996774 n370960978 n262077095 
n560782353
151
n560782354 n560782353 n560782354 
