n12 0 ;
n12 1 ;
n12 100 ;
n12 101 ;
n12 125 ;
n12 200 ;
n12 250 ;
n12 295 ;
n12 296 ;
n12 300 ;
n12 324 ;
n12 325 ;
n12 400 ;
n12 534 ;
n12 535 ;
- Sherbrooke ;
n12 0 ;
n12 1 ;
n12 100 ;
n12 101 ;
n12 125 ;
n12 200 ;
n12 250 ;
n12 295 ;
n12 296 ;
n12 300 ;
n12 324 ;
n12 325 ;
n12 400 ;
n12 534 ;
n12 535 ;
